<?xml version="1.0" encoding="UTF-8" standalone="no"?>
<graphml xmlns="http://graphml.graphdrawing.org/xmlns" xmlns:java="http://www.yworks.com/xml/yfiles-common/1.0/java" xmlns:sys="http://www.yworks.com/xml/yfiles-common/markup/primitives/2.0" xmlns:x="http://www.yworks.com/xml/yfiles-common/markup/2.0" xmlns:xsi="http://www.w3.org/2001/XMLSchema-instance" xmlns:y="http://www.yworks.com/xml/graphml" xmlns:yed="http://www.yworks.com/xml/yed/3" xsi:schemaLocation="http://graphml.graphdrawing.org/xmlns http://www.yworks.com/xml/schema/graphml/1.1/ygraphml.xsd">
  <!--Created by yEd 3.14.4-->
  <key attr.name="Description" attr.type="string" for="graph" id="d0"/>
  <key for="port" id="d1" yfiles.type="portgraphics"/>
  <key for="port" id="d2" yfiles.type="portgeometry"/>
  <key for="port" id="d3" yfiles.type="portuserdata"/>
  <key attr.name="url" attr.type="string" for="node" id="d4"/>
  <key attr.name="description" attr.type="string" for="node" id="d5"/>
  <key for="node" id="d6" yfiles.type="nodegraphics"/>
  <key for="graphml" id="d7" yfiles.type="resources"/>
  <key attr.name="url" attr.type="string" for="edge" id="d8"/>
  <key attr.name="description" attr.type="string" for="edge" id="d9"/>
  <key for="edge" id="d10" yfiles.type="edgegraphics"/>
  <graph edgedefault="directed" id="G">
    <data key="d0"/>
    <node id="n0">
      <data key="d5"/>
      <data key="d6">
        <y:ShapeNode>
          <y:Geometry height="104.0" width="632.0" x="522.3749999999999" y="599.875"/>
          <y:Fill hasColor="false" transparent="false"/>
          <y:BorderStyle color="#000000" type="line" width="1.0"/>
          <y:NodeLabel alignment="center" autoSizePolicy="content" fontFamily="Dialog" fontSize="12" fontStyle="plain" hasBackgroundColor="false" hasLineColor="false" hasText="false" height="4.0" modelName="custom" textColor="#000000" visible="true" width="4.0" x="314.0" y="50.0">
            <y:LabelModel>
              <y:SmartNodeLabelModel distance="4.0"/>
            </y:LabelModel>
            <y:ModelParameter>
              <y:SmartNodeLabelModelParameter labelRatioX="0.0" labelRatioY="0.0" nodeRatioX="0.0" nodeRatioY="0.0" offsetX="0.0" offsetY="0.0" upX="0.0" upY="-1.0"/>
            </y:ModelParameter>
          </y:NodeLabel>
          <y:Shape type="rectangle"/>
        </y:ShapeNode>
      </data>
    </node>
    <node id="n1">
      <data key="d5"/>
      <data key="d6">
        <y:ShapeNode>
          <y:Geometry height="97.5" width="248.0" x="115.25" y="186.75"/>
          <y:Fill hasColor="false" transparent="false"/>
          <y:BorderStyle color="#000000" type="line" width="1.0"/>
          <y:NodeLabel alignment="center" autoSizePolicy="content" fontFamily="Dialog" fontSize="12" fontStyle="plain" hasBackgroundColor="false" hasLineColor="false" hasText="false" height="4.0" modelName="custom" textColor="#000000" visible="true" width="4.0" x="122.0" y="46.75">
            <y:LabelModel>
              <y:SmartNodeLabelModel distance="4.0"/>
            </y:LabelModel>
            <y:ModelParameter>
              <y:SmartNodeLabelModelParameter labelRatioX="0.0" labelRatioY="0.0" nodeRatioX="0.0" nodeRatioY="0.0" offsetX="0.0" offsetY="0.0" upX="0.0" upY="-1.0"/>
            </y:ModelParameter>
          </y:NodeLabel>
          <y:Shape type="rectangle"/>
        </y:ShapeNode>
      </data>
    </node>
    <node id="n2">
      <data key="d5"/>
      <data key="d6">
        <y:ShapeNode>
          <y:Geometry height="205.5" width="451.0" x="18.0" y="637.25"/>
          <y:Fill hasColor="false" transparent="false"/>
          <y:BorderStyle color="#000000" type="line" width="1.0"/>
          <y:NodeLabel alignment="center" autoSizePolicy="content" fontFamily="Dialog" fontSize="12" fontStyle="plain" hasBackgroundColor="false" hasLineColor="false" hasText="false" height="4.0" modelName="custom" textColor="#000000" visible="true" width="4.0" x="223.5" y="100.75">
            <y:LabelModel>
              <y:SmartNodeLabelModel distance="4.0"/>
            </y:LabelModel>
            <y:ModelParameter>
              <y:SmartNodeLabelModelParameter labelRatioX="0.0" labelRatioY="0.0" nodeRatioX="0.0" nodeRatioY="0.0" offsetX="0.0" offsetY="0.0" upX="0.0" upY="-1.0"/>
            </y:ModelParameter>
          </y:NodeLabel>
          <y:Shape type="rectangle"/>
        </y:ShapeNode>
      </data>
    </node>
    <node id="n3">
      <data key="d5"/>
      <data key="d6">
        <y:ShapeNode>
          <y:Geometry height="232.5" width="451.0" x="18.25" y="384.75000000000006"/>
          <y:Fill hasColor="false" transparent="false"/>
          <y:BorderStyle color="#000000" type="line" width="1.0"/>
          <y:NodeLabel alignment="center" autoSizePolicy="content" fontFamily="Dialog" fontSize="12" fontStyle="plain" hasBackgroundColor="false" hasLineColor="false" hasText="false" height="4.0" modelName="custom" textColor="#000000" visible="true" width="4.0" x="223.5" y="114.25">
            <y:LabelModel>
              <y:SmartNodeLabelModel distance="4.0"/>
            </y:LabelModel>
            <y:ModelParameter>
              <y:SmartNodeLabelModelParameter labelRatioX="0.0" labelRatioY="0.0" nodeRatioX="0.0" nodeRatioY="0.0" offsetX="0.0" offsetY="0.0" upX="0.0" upY="-1.0"/>
            </y:ModelParameter>
          </y:NodeLabel>
          <y:Shape type="rectangle"/>
        </y:ShapeNode>
      </data>
    </node>
    <node id="n4">
      <data key="d5"/>
      <data key="d6">
        <y:ShapeNode>
          <y:Geometry height="30.0" width="228.0" x="126.0" y="197.0"/>
          <y:Fill color="#CC99FF" transparent="false"/>
          <y:BorderStyle color="#000000" type="line" width="1.0"/>
          <y:NodeLabel alignment="center" autoSizePolicy="content" fontFamily="Dialog" fontSize="12" fontStyle="plain" hasBackgroundColor="false" hasLineColor="false" height="17.96875" modelName="custom" textColor="#000000" visible="true" width="205.984375" x="11.0078125" y="6.015625">generate_csv_annotation_v2.1.py<y:LabelModel>
              <y:SmartNodeLabelModel distance="4.0"/>
            </y:LabelModel>
            <y:ModelParameter>
              <y:SmartNodeLabelModelParameter labelRatioX="0.0" labelRatioY="0.0" nodeRatioX="0.0" nodeRatioY="0.0" offsetX="0.0" offsetY="0.0" upX="0.0" upY="-1.0"/>
            </y:ModelParameter>
          </y:NodeLabel>
          <y:Shape type="rectangle"/>
        </y:ShapeNode>
      </data>
    </node>
    <node id="n5">
      <data key="d5"/>
      <data key="d6">
        <y:ShapeNode>
          <y:Geometry height="30.0" width="228.0" x="724.6249999999999" y="333.00000000000006"/>
          <y:Fill color="#C0C0C0" transparent="false"/>
          <y:BorderStyle color="#000000" type="line" width="1.0"/>
          <y:NodeLabel alignment="center" autoSizePolicy="content" fontFamily="Dialog" fontSize="12" fontStyle="plain" hasBackgroundColor="false" hasLineColor="false" height="17.96875" modelName="custom" textColor="#000000" visible="true" width="150.220703125" x="38.8896484375" y="6.015625">csv_annot_modules.data_import.py<y:LabelModel>
              <y:SmartNodeLabelModel distance="4.0"/>
            </y:LabelModel>
            <y:ModelParameter>
              <y:SmartNodeLabelModelParameter labelRatioX="0.0" labelRatioY="0.0" nodeRatioX="0.0" nodeRatioY="0.0" offsetX="0.0" offsetY="0.0" upX="0.0" upY="-1.0"/>
            </y:ModelParameter>
          </y:NodeLabel>
          <y:Shape type="rectangle"/>
        </y:ShapeNode>
      </data>
    </node>
    <node id="n6">
      <data key="d5"/>
      <data key="d6">
        <y:ShapeNode>
          <y:Geometry height="30.0" width="228.0" x="129.5" y="334.75000000000006"/>
          <y:Fill color="#C0C0C0" transparent="false"/>
          <y:BorderStyle color="#000000" type="line" width="1.0"/>
          <y:NodeLabel alignment="center" autoSizePolicy="content" fontFamily="Dialog" fontSize="12" fontStyle="plain" hasBackgroundColor="false" hasLineColor="false" height="17.96875" modelName="custom" textColor="#000000" visible="true" width="158.529296875" x="34.7353515625" y="6.015625">csv_annot_modules.entry_objects.py<y:LabelModel>
              <y:SmartNodeLabelModel distance="4.0"/>
            </y:LabelModel>
            <y:ModelParameter>
              <y:SmartNodeLabelModelParameter labelRatioX="0.0" labelRatioY="0.0" nodeRatioX="0.0" nodeRatioY="0.0" offsetX="0.0" offsetY="0.0" upX="0.0" upY="-1.0"/>
            </y:ModelParameter>
          </y:NodeLabel>
          <y:Shape type="rectangle"/>
        </y:ShapeNode>
      </data>
    </node>
    <node id="n7">
      <data key="d5"/>
      <data key="d6">
        <y:ShapeNode>
          <y:Geometry height="30.0" width="228.0" x="724.6249999999999" y="618.875"/>
          <y:Fill color="#C0C0C0" transparent="false"/>
          <y:BorderStyle color="#000000" type="line" width="1.0"/>
          <y:NodeLabel alignment="center" autoSizePolicy="content" fontFamily="Dialog" fontSize="12" fontStyle="plain" hasBackgroundColor="false" hasLineColor="false" height="17.96875" modelName="custom" textColor="#000000" visible="true" width="154.439453125" x="36.7802734375" y="6.015625">csv_annot_modules.args_parsing.py<y:LabelModel>
              <y:SmartNodeLabelModel distance="4.0"/>
            </y:LabelModel>
            <y:ModelParameter>
              <y:SmartNodeLabelModelParameter labelRatioX="0.0" labelRatioY="0.0" nodeRatioX="0.0" nodeRatioY="0.0" offsetX="0.0" offsetY="0.0" upX="0.0" upY="-1.0"/>
            </y:ModelParameter>
          </y:NodeLabel>
          <y:Shape type="rectangle"/>
        </y:ShapeNode>
      </data>
    </node>
    <node id="n8">
      <data key="d5"/>
      <data key="d6">
        <y:ShapeNode>
          <y:Geometry height="30.0" width="228.0" x="724.6249999999999" y="733.875"/>
          <y:Fill color="#C0C0C0" transparent="false"/>
          <y:BorderStyle color="#000000" type="line" width="1.0"/>
          <y:NodeLabel alignment="center" autoSizePolicy="content" fontFamily="Dialog" fontSize="12" fontStyle="plain" hasBackgroundColor="false" hasLineColor="false" height="17.96875" modelName="custom" textColor="#000000" visible="true" width="164.494140625" x="31.7529296875" y="6.015625">csv_annot_modules.output_writing.py<y:LabelModel>
              <y:SmartNodeLabelModel distance="4.0"/>
            </y:LabelModel>
            <y:ModelParameter>
              <y:SmartNodeLabelModelParameter labelRatioX="0.0" labelRatioY="0.0" nodeRatioX="0.0" nodeRatioY="0.0" offsetX="0.0" offsetY="0.0" upX="0.0" upY="-1.0"/>
            </y:ModelParameter>
          </y:NodeLabel>
          <y:Shape type="rectangle"/>
        </y:ShapeNode>
      </data>
    </node>
    <node id="n9">
      <data key="d5"/>
      <data key="d6">
        <y:ShapeNode>
          <y:Geometry height="24.0" width="228.0" x="126.0" y="246.0"/>
          <y:Fill color="#99CCFF" transparent="false"/>
          <y:BorderStyle color="#000000" type="line" width="1.0"/>
          <y:NodeLabel alignment="center" autoSizePolicy="content" fontFamily="Dialog" fontSize="12" fontStyle="plain" hasBackgroundColor="false" hasLineColor="false" height="17.96875" modelName="custom" textColor="#000000" visible="true" width="72.5546875" x="77.72265625" y="3.015625">void main()<y:LabelModel>
              <y:SmartNodeLabelModel distance="4.0"/>
            </y:LabelModel>
            <y:ModelParameter>
              <y:SmartNodeLabelModelParameter labelRatioX="0.0" labelRatioY="0.0" nodeRatioX="0.0" nodeRatioY="0.0" offsetX="0.0" offsetY="0.0" upX="0.0" upY="-1.0"/>
            </y:ModelParameter>
          </y:NodeLabel>
          <y:Shape type="roundrectangle"/>
        </y:ShapeNode>
      </data>
    </node>
    <node id="n10">
      <data key="d5"/>
      <data key="d6">
        <y:ShapeNode>
          <y:Geometry height="24.0" width="604.0" x="536.6249999999999" y="369.00000000000006"/>
          <y:Fill color="#99CCFF" transparent="false"/>
          <y:BorderStyle color="#000000" type="line" width="1.0"/>
          <y:NodeLabel alignment="center" autoSizePolicy="content" fontFamily="Dialog" fontSize="12" fontStyle="plain" hasBackgroundColor="false" hasLineColor="false" height="17.96875" modelName="custom" textColor="#000000" visible="true" width="294.8125" x="154.59375" y="3.015625">dict[string,GeneEntry] parse_input_entries(args)<y:LabelModel>
              <y:SmartNodeLabelModel distance="4.0"/>
            </y:LabelModel>
            <y:ModelParameter>
              <y:SmartNodeLabelModelParameter labelRatioX="0.0" labelRatioY="0.0" nodeRatioX="0.0" nodeRatioY="0.0" offsetX="0.0" offsetY="0.0" upX="0.0" upY="-1.0"/>
            </y:ModelParameter>
          </y:NodeLabel>
          <y:Shape type="roundrectangle"/>
        </y:ShapeNode>
      </data>
    </node>
    <node id="n11">
      <data key="d5"/>
      <data key="d6">
        <y:ShapeNode>
          <y:Geometry height="24.0" width="604.0" x="536.6249999999999" y="399.00000000000006"/>
          <y:Fill color="#99CCFF" transparent="false"/>
          <y:BorderStyle color="#000000" type="line" width="1.0"/>
          <y:NodeLabel alignment="center" autoSizePolicy="content" fontFamily="Dialog" fontSize="12" fontStyle="plain" hasBackgroundColor="false" hasLineColor="false" height="17.96875" modelName="custom" textColor="#000000" visible="true" width="453.63671875" x="75.181640625" y="3.015625">void import_de_matrix(gene_entries, de_matrix_fp, p_cutoff, delimitor=",")<y:LabelModel>
              <y:SmartNodeLabelModel distance="4.0"/>
            </y:LabelModel>
            <y:ModelParameter>
              <y:SmartNodeLabelModelParameter labelRatioX="0.0" labelRatioY="0.0" nodeRatioX="0.0" nodeRatioY="0.0" offsetX="0.0" offsetY="0.0" upX="0.0" upY="-1.0"/>
            </y:ModelParameter>
          </y:NodeLabel>
          <y:Shape type="roundrectangle"/>
        </y:ShapeNode>
      </data>
    </node>
    <node id="n12">
      <data key="d5"/>
      <data key="d6">
        <y:ShapeNode>
          <y:Geometry height="24.0" width="604.0" x="536.6249999999999" y="429.00000000000006"/>
          <y:Fill color="#99CCFF" transparent="false"/>
          <y:BorderStyle color="#000000" type="line" width="1.0"/>
          <y:NodeLabel alignment="center" autoSizePolicy="content" fontFamily="Dialog" fontSize="12" fontStyle="plain" hasBackgroundColor="false" hasLineColor="false" height="17.96875" modelName="custom" textColor="#000000" visible="true" width="475.615234375" x="64.1923828125" y="3.015625">void import_signalp_annotation(gene_entries, signalp_path, sub_id_del=None)<y:LabelModel>
              <y:SmartNodeLabelModel distance="4.0"/>
            </y:LabelModel>
            <y:ModelParameter>
              <y:SmartNodeLabelModelParameter labelRatioX="0.0" labelRatioY="0.0" nodeRatioX="0.0" nodeRatioY="0.0" offsetX="0.0" offsetY="0.0" upX="0.0" upY="-1.0"/>
            </y:ModelParameter>
          </y:NodeLabel>
          <y:Shape type="roundrectangle"/>
        </y:ShapeNode>
      </data>
    </node>
    <node id="n13">
      <data key="d5"/>
      <data key="d6">
        <y:ShapeNode>
          <y:Geometry height="24.0" width="604.0" x="536.6249999999999" y="459.00000000000006"/>
          <y:Fill color="#99CCFF" transparent="false"/>
          <y:BorderStyle color="#000000" type="line" width="1.0"/>
          <y:NodeLabel alignment="center" autoSizePolicy="content" fontFamily="Dialog" fontSize="12" fontStyle="plain" hasBackgroundColor="false" hasLineColor="false" height="17.96875" modelName="custom" textColor="#000000" visible="true" width="484.146484375" x="59.9267578125" y="3.015625">void import_tmhmm_annotation(gene_entries, tmhmm_path, sub_id_del=None)<y:LabelModel>
              <y:SmartNodeLabelModel distance="4.0"/>
            </y:LabelModel>
            <y:ModelParameter>
              <y:SmartNodeLabelModelParameter labelRatioX="0.0" labelRatioY="0.0" nodeRatioX="0.0" nodeRatioY="0.0" offsetX="0.0" offsetY="0.0" upX="0.0" upY="-1.0"/>
            </y:ModelParameter>
          </y:NodeLabel>
          <y:Shape type="roundrectangle"/>
        </y:ShapeNode>
      </data>
    </node>
    <node id="n14">
      <data key="d5"/>
      <data key="d6">
        <y:ShapeNode>
          <y:Geometry height="24.0" width="604.0" x="536.6249999999999" y="489.00000000000006"/>
          <y:Fill color="#99CCFF" transparent="false"/>
          <y:BorderStyle color="#000000" type="line" width="1.0"/>
          <y:NodeLabel alignment="center" autoSizePolicy="content" fontFamily="Dialog" fontSize="12" fontStyle="plain" hasBackgroundColor="false" hasLineColor="false" height="17.96875" modelName="custom" textColor="#000000" visible="true" width="557.142578125" x="23.4287109375" y="3.015625">void import_blast_annotation(gene_entries, blast_path, blast_field_string, sub_id_del=None)<y:LabelModel>
              <y:SmartNodeLabelModel distance="4.0"/>
            </y:LabelModel>
            <y:ModelParameter>
              <y:SmartNodeLabelModelParameter labelRatioX="0.0" labelRatioY="0.0" nodeRatioX="0.0" nodeRatioY="0.0" offsetX="0.0" offsetY="0.0" upX="0.0" upY="-1.0"/>
            </y:ModelParameter>
          </y:NodeLabel>
          <y:Shape type="roundrectangle"/>
        </y:ShapeNode>
      </data>
    </node>
    <node id="n15">
      <data key="d5"/>
      <data key="d6">
        <y:ShapeNode>
          <y:Geometry height="24.0" width="604.0" x="536.6249999999999" y="519.0"/>
          <y:Fill color="#99CCFF" transparent="false"/>
          <y:BorderStyle color="#000000" type="line" width="1.0"/>
          <y:NodeLabel alignment="center" autoSizePolicy="content" fontFamily="Dialog" fontSize="12" fontStyle="plain" hasBackgroundColor="false" hasLineColor="false" height="17.96875" modelName="custom" textColor="#000000" visible="true" width="543.8125" x="30.09375" y="3.015625">void import_subset_matrix_annotation(gene_entries, subset_matrix_fp, sub_id_del=None)<y:LabelModel>
              <y:SmartNodeLabelModel distance="4.0"/>
            </y:LabelModel>
            <y:ModelParameter>
              <y:SmartNodeLabelModelParameter labelRatioX="0.0" labelRatioY="0.0" nodeRatioX="0.0" nodeRatioY="0.0" offsetX="0.0" offsetY="0.0" upX="0.0" upY="-1.0"/>
            </y:ModelParameter>
          </y:NodeLabel>
          <y:Shape type="roundrectangle"/>
        </y:ShapeNode>
      </data>
    </node>
    <node id="n16">
      <data key="d5"/>
      <data key="d6">
        <y:ShapeNode>
          <y:Geometry height="30.0" width="120.0" x="183.5" y="394.75000000000006"/>
          <y:Fill color="#FFCC99" transparent="false"/>
          <y:BorderStyle color="#000000" type="line" width="1.0"/>
          <y:NodeLabel alignment="center" autoSizePolicy="content" fontFamily="Dialog" fontSize="12" fontStyle="plain" hasBackgroundColor="false" hasLineColor="false" height="17.96875" modelName="custom" textColor="#000000" visible="true" width="67.59765625" x="26.201171875" y="6.015625">GeneEntry<y:LabelModel>
              <y:SmartNodeLabelModel distance="4.0"/>
            </y:LabelModel>
            <y:ModelParameter>
              <y:SmartNodeLabelModelParameter labelRatioX="0.0" labelRatioY="0.0" nodeRatioX="0.0" nodeRatioY="0.0" offsetX="0.0" offsetY="0.0" upX="0.0" upY="-1.0"/>
            </y:ModelParameter>
          </y:NodeLabel>
          <y:Shape type="hexagon"/>
        </y:ShapeNode>
      </data>
    </node>
    <node id="n17">
      <data key="d5"/>
      <data key="d6">
        <y:ShapeNode>
          <y:Geometry height="24.0" width="438.0" x="24.5" y="460.75000000000006"/>
          <y:Fill color="#CCFFCC" transparent="false"/>
          <y:BorderStyle color="#000000" type="line" width="1.0"/>
          <y:NodeLabel alignment="center" autoSizePolicy="content" fontFamily="Dialog" fontSize="12" fontStyle="plain" hasBackgroundColor="false" hasLineColor="false" height="17.96875" modelName="custom" textColor="#000000" visible="true" width="288.396484375" x="74.8017578125" y="3.015625">list[string] _get_included_annotations_list(args)<y:LabelModel>
              <y:SmartNodeLabelModel distance="4.0"/>
            </y:LabelModel>
            <y:ModelParameter>
              <y:SmartNodeLabelModelParameter labelRatioX="0.0" labelRatioY="0.0" nodeRatioX="0.0" nodeRatioY="0.0" offsetX="0.0" offsetY="0.0" upX="0.0" upY="-1.0"/>
            </y:ModelParameter>
          </y:NodeLabel>
          <y:Shape type="roundrectangle"/>
        </y:ShapeNode>
      </data>
    </node>
    <node id="n18">
      <data key="d5"/>
      <data key="d6">
        <y:ShapeNode>
          <y:Geometry height="24.0" width="438.0" x="24.5" y="491.75000000000006"/>
          <y:Fill color="#CCFFCC" transparent="false"/>
          <y:BorderStyle color="#000000" type="line" width="1.0"/>
          <y:NodeLabel alignment="center" autoSizePolicy="content" fontFamily="Dialog" fontSize="12" fontStyle="plain" hasBackgroundColor="false" hasLineColor="false" height="17.96875" modelName="custom" textColor="#000000" visible="true" width="409.12890625" x="14.435546875" y="3.015625">dict[string,AnnotationEntry] _setup_assigned_annotation_dict(args)<y:LabelModel>
              <y:SmartNodeLabelModel distance="4.0"/>
            </y:LabelModel>
            <y:ModelParameter>
              <y:SmartNodeLabelModelParameter labelRatioX="0.0" labelRatioY="0.0" nodeRatioX="0.0" nodeRatioY="0.0" offsetX="0.0" offsetY="0.0" upX="0.0" upY="-1.0"/>
            </y:ModelParameter>
          </y:NodeLabel>
          <y:Shape type="roundrectangle"/>
        </y:ShapeNode>
      </data>
    </node>
    <node id="n19">
      <data key="d5"/>
      <data key="d6">
        <y:ShapeNode>
          <y:Geometry height="24.0" width="438.0" x="24.5" y="522.75"/>
          <y:Fill color="#CCFFCC" transparent="false"/>
          <y:BorderStyle color="#000000" type="line" width="1.0"/>
          <y:NodeLabel alignment="center" autoSizePolicy="content" fontFamily="Dialog" fontSize="12" fontStyle="plain" hasBackgroundColor="false" hasLineColor="false" height="17.96875" modelName="custom" textColor="#000000" visible="true" width="193.779296875" x="122.1103515625" y="3.015625">AnnotationEntry get_entry(key)<y:LabelModel>
              <y:SmartNodeLabelModel distance="4.0"/>
            </y:LabelModel>
            <y:ModelParameter>
              <y:SmartNodeLabelModelParameter labelRatioX="0.0" labelRatioY="0.0" nodeRatioX="0.0" nodeRatioY="0.0" offsetX="0.0" offsetY="0.0" upX="0.0" upY="-1.0"/>
            </y:ModelParameter>
          </y:NodeLabel>
          <y:Shape type="roundrectangle"/>
        </y:ShapeNode>
      </data>
    </node>
    <node id="n20">
      <data key="d5"/>
      <data key="d6">
        <y:ShapeNode>
          <y:Geometry height="24.0" width="438.0" x="24.5" y="715.75"/>
          <y:Fill color="#CCFFCC" transparent="false"/>
          <y:BorderStyle color="#000000" type="line" width="1.0"/>
          <y:NodeLabel alignment="center" autoSizePolicy="content" fontFamily="Dialog" fontSize="12" fontStyle="plain" hasBackgroundColor="false" hasLineColor="false" height="17.96875" modelName="custom" textColor="#000000" visible="true" width="331.978515625" x="53.0107421875" y="3.015625">void assign_annotation_list(annotation_key, value_list)<y:LabelModel>
              <y:SmartNodeLabelModel distance="4.0"/>
            </y:LabelModel>
            <y:ModelParameter>
              <y:SmartNodeLabelModelParameter labelRatioX="0.0" labelRatioY="0.0" nodeRatioX="0.0" nodeRatioY="0.0" offsetX="0.0" offsetY="0.0" upX="0.0" upY="-1.0"/>
            </y:ModelParameter>
          </y:NodeLabel>
          <y:Shape type="roundrectangle"/>
        </y:ShapeNode>
      </data>
    </node>
    <node id="n21">
      <data key="d5"/>
      <data key="d6">
        <y:ShapeNode>
          <y:Geometry height="24.0" width="438.0" x="24.5" y="553.75"/>
          <y:Fill color="#CCFFCC" transparent="false"/>
          <y:BorderStyle color="#000000" type="line" width="1.0"/>
          <y:NodeLabel alignment="center" autoSizePolicy="content" fontFamily="Dialog" fontSize="12" fontStyle="plain" hasBackgroundColor="false" hasLineColor="false" height="17.96875" modelName="custom" textColor="#000000" visible="true" width="194.318359375" x="121.8408203125" y="3.015625">void assign_no_annotation(key)<y:LabelModel>
              <y:SmartNodeLabelModel distance="4.0"/>
            </y:LabelModel>
            <y:ModelParameter>
              <y:SmartNodeLabelModelParameter labelRatioX="0.0" labelRatioY="0.0" nodeRatioX="0.0" nodeRatioY="0.0" offsetX="0.0" offsetY="0.0" upX="0.0" upY="-1.0"/>
            </y:ModelParameter>
          </y:NodeLabel>
          <y:Shape type="roundrectangle"/>
        </y:ShapeNode>
      </data>
    </node>
    <node id="n22">
      <data key="d5"/>
      <data key="d6">
        <y:ShapeNode>
          <y:Geometry height="24.0" width="438.0" x="24.5" y="584.75"/>
          <y:Fill color="#CCFFCC" transparent="false"/>
          <y:BorderStyle color="#000000" type="line" width="1.0"/>
          <y:NodeLabel alignment="center" autoSizePolicy="content" fontFamily="Dialog" fontSize="12" fontStyle="plain" hasBackgroundColor="false" hasLineColor="false" height="17.96875" modelName="custom" textColor="#000000" visible="true" width="91.515625" x="173.2421875" y="3.015625">string __str__()<y:LabelModel>
              <y:SmartNodeLabelModel distance="4.0"/>
            </y:LabelModel>
            <y:ModelParameter>
              <y:SmartNodeLabelModelParameter labelRatioX="0.0" labelRatioY="0.0" nodeRatioX="0.0" nodeRatioY="0.0" offsetX="0.0" offsetY="0.0" upX="0.0" upY="-1.0"/>
            </y:ModelParameter>
          </y:NodeLabel>
          <y:Shape type="roundrectangle"/>
        </y:ShapeNode>
      </data>
    </node>
    <node id="n23">
      <data key="d5"/>
      <data key="d6">
        <y:ShapeNode>
          <y:Geometry height="30.0" width="120.0" x="183.5" y="647.75"/>
          <y:Fill color="#FFCC99" transparent="false"/>
          <y:BorderStyle color="#000000" type="line" width="1.0"/>
          <y:NodeLabel alignment="center" autoSizePolicy="content" fontFamily="Dialog" fontSize="12" fontStyle="plain" hasBackgroundColor="false" hasLineColor="false" height="17.96875" modelName="custom" textColor="#000000" visible="true" width="101.734375" x="9.1328125" y="6.015625">AnnotationEntry<y:LabelModel>
              <y:SmartNodeLabelModel distance="4.0"/>
            </y:LabelModel>
            <y:ModelParameter>
              <y:SmartNodeLabelModelParameter labelRatioX="0.0" labelRatioY="0.0" nodeRatioX="0.0" nodeRatioY="0.0" offsetX="0.0" offsetY="0.0" upX="0.0" upY="-1.0"/>
            </y:ModelParameter>
          </y:NodeLabel>
          <y:Shape type="hexagon"/>
        </y:ShapeNode>
      </data>
    </node>
    <node id="n24">
      <data key="d5"/>
      <data key="d6">
        <y:ShapeNode>
          <y:Geometry height="24.0" width="438.0" x="24.5" y="430.75000000000006"/>
          <y:Fill color="#CCFFCC" transparent="false"/>
          <y:BorderStyle color="#000000" type="line" width="1.0"/>
          <y:NodeLabel alignment="center" autoSizePolicy="content" fontFamily="Dialog" fontSize="12" fontStyle="plain" hasBackgroundColor="false" hasLineColor="false" height="17.96875" modelName="custom" textColor="#000000" visible="true" width="166.17578125" x="135.912109375" y="3.015625">void __init__(fasta_id, args)<y:LabelModel>
              <y:SmartNodeLabelModel distance="4.0"/>
            </y:LabelModel>
            <y:ModelParameter>
              <y:SmartNodeLabelModelParameter labelRatioX="0.0" labelRatioY="0.0" nodeRatioX="0.0" nodeRatioY="0.0" offsetX="0.0" offsetY="0.0" upX="0.0" upY="-1.0"/>
            </y:ModelParameter>
          </y:NodeLabel>
          <y:Shape type="roundrectangle"/>
        </y:ShapeNode>
      </data>
    </node>
    <node id="n25">
      <data key="d5"/>
      <data key="d6">
        <y:ShapeNode>
          <y:Geometry height="24.0" width="438.0" x="24.5" y="684.75"/>
          <y:Fill color="#CCFFCC" transparent="false"/>
          <y:BorderStyle color="#000000" type="line" width="1.0"/>
          <y:NodeLabel alignment="center" autoSizePolicy="content" fontFamily="Dialog" fontSize="12" fontStyle="plain" hasBackgroundColor="false" hasLineColor="false" height="17.96875" modelName="custom" textColor="#000000" visible="true" width="307.462890625" x="65.2685546875" y="3.015625">void __init__(fasta_id, options_dict, key, nbr_fields)<y:LabelModel>
              <y:SmartNodeLabelModel distance="4.0"/>
            </y:LabelModel>
            <y:ModelParameter>
              <y:SmartNodeLabelModelParameter labelRatioX="0.0" labelRatioY="0.0" nodeRatioX="0.0" nodeRatioY="0.0" offsetX="0.0" offsetY="0.0" upX="0.0" upY="-1.0"/>
            </y:ModelParameter>
          </y:NodeLabel>
          <y:Shape type="roundrectangle"/>
        </y:ShapeNode>
      </data>
    </node>
    <node id="n26">
      <data key="d5"/>
      <data key="d6">
        <y:ShapeNode>
          <y:Geometry height="24.0" width="438.0" x="24.5" y="746.75"/>
          <y:Fill color="#CCFFCC" transparent="false"/>
          <y:BorderStyle color="#000000" type="line" width="1.0"/>
          <y:NodeLabel alignment="center" autoSizePolicy="content" fontFamily="Dialog" fontSize="12" fontStyle="plain" hasBackgroundColor="false" hasLineColor="false" height="17.96875" modelName="custom" textColor="#000000" visible="true" width="152.517578125" x="142.7412109375" y="3.015625">void mark_as_assigned()<y:LabelModel>
              <y:SmartNodeLabelModel distance="4.0"/>
            </y:LabelModel>
            <y:ModelParameter>
              <y:SmartNodeLabelModelParameter labelRatioX="0.0" labelRatioY="0.0" nodeRatioX="0.0" nodeRatioY="0.0" offsetX="0.0" offsetY="0.0" upX="0.0" upY="-1.0"/>
            </y:ModelParameter>
          </y:NodeLabel>
          <y:Shape type="roundrectangle"/>
        </y:ShapeNode>
      </data>
    </node>
    <node id="n27">
      <data key="d5"/>
      <data key="d6">
        <y:ShapeNode>
          <y:Geometry height="24.0" width="438.0" x="24.5" y="777.75"/>
          <y:Fill color="#CCFFCC" transparent="false"/>
          <y:BorderStyle color="#000000" type="line" width="1.0"/>
          <y:NodeLabel alignment="center" autoSizePolicy="content" fontFamily="Dialog" fontSize="12" fontStyle="plain" hasBackgroundColor="false" hasLineColor="false" height="17.96875" modelName="custom" textColor="#000000" visible="true" width="102.560546875" x="167.7197265625" y="3.015625">void has_value()<y:LabelModel>
              <y:SmartNodeLabelModel distance="4.0"/>
            </y:LabelModel>
            <y:ModelParameter>
              <y:SmartNodeLabelModelParameter labelRatioX="0.0" labelRatioY="0.0" nodeRatioX="0.0" nodeRatioY="0.0" offsetX="0.0" offsetY="0.0" upX="0.0" upY="-1.0"/>
            </y:ModelParameter>
          </y:NodeLabel>
          <y:Shape type="roundrectangle"/>
        </y:ShapeNode>
      </data>
    </node>
    <node id="n28">
      <data key="d5"/>
      <data key="d6">
        <y:ShapeNode>
          <y:Geometry height="24.0" width="438.0" x="24.5" y="808.75"/>
          <y:Fill color="#CCFFCC" transparent="false"/>
          <y:BorderStyle color="#000000" type="line" width="1.0"/>
          <y:NodeLabel alignment="center" autoSizePolicy="content" fontFamily="Dialog" fontSize="12" fontStyle="plain" hasBackgroundColor="false" hasLineColor="false" height="17.96875" modelName="custom" textColor="#000000" visible="true" width="204.2265625" x="116.88671875" y="3.015625">string get_value_string(delimitor)<y:LabelModel>
              <y:SmartNodeLabelModel distance="4.0"/>
            </y:LabelModel>
            <y:ModelParameter>
              <y:SmartNodeLabelModelParameter labelRatioX="0.0" labelRatioY="0.0" nodeRatioX="0.0" nodeRatioY="0.0" offsetX="0.0" offsetY="0.0" upX="0.0" upY="-1.0"/>
            </y:ModelParameter>
          </y:NodeLabel>
          <y:Shape type="roundrectangle"/>
        </y:ShapeNode>
      </data>
    </node>
    <node id="n29">
      <data key="d5"/>
      <data key="d6">
        <y:ShapeNode>
          <y:Geometry height="24.0" width="604.0" x="536.6249999999999" y="663.875"/>
          <y:Fill color="#99CCFF" transparent="false"/>
          <y:BorderStyle color="#000000" type="line" width="1.0"/>
          <y:NodeLabel alignment="center" autoSizePolicy="content" fontFamily="Dialog" fontSize="12" fontStyle="plain" hasBackgroundColor="false" hasLineColor="false" height="17.96875" modelName="custom" textColor="#000000" visible="true" width="285.466796875" x="159.2666015625" y="3.015625">args parse_arguments(help_message, version)<y:LabelModel>
              <y:SmartNodeLabelModel distance="4.0"/>
            </y:LabelModel>
            <y:ModelParameter>
              <y:SmartNodeLabelModelParameter labelRatioX="0.0" labelRatioY="0.0" nodeRatioX="0.0" nodeRatioY="0.0" offsetX="0.0" offsetY="0.0" upX="0.0" upY="-1.0"/>
            </y:ModelParameter>
          </y:NodeLabel>
          <y:Shape type="roundrectangle"/>
        </y:ShapeNode>
      </data>
    </node>
    <node id="n30">
      <data key="d5"/>
      <data key="d6">
        <y:ShapeNode>
          <y:Geometry height="24.0" width="604.0" x="536.6249999999999" y="779.8749999999999"/>
          <y:Fill color="#99CCFF" transparent="false"/>
          <y:BorderStyle color="#000000" type="line" width="1.0"/>
          <y:NodeLabel alignment="center" autoSizePolicy="content" fontFamily="Dialog" fontSize="12" fontStyle="plain" hasBackgroundColor="false" hasLineColor="false" height="17.96875" modelName="custom" textColor="#000000" visible="true" width="379.896484375" x="112.0517578125" y="3.015625">void output_table(gene_entries, output_path, args, delimit=',')<y:LabelModel>
              <y:SmartNodeLabelModel distance="4.0"/>
            </y:LabelModel>
            <y:ModelParameter>
              <y:SmartNodeLabelModelParameter labelRatioX="0.0" labelRatioY="0.0" nodeRatioX="0.0" nodeRatioY="0.0" offsetX="0.0" offsetY="0.0" upX="0.0" upY="-1.0"/>
            </y:ModelParameter>
          </y:NodeLabel>
          <y:Shape type="roundrectangle"/>
        </y:ShapeNode>
      </data>
    </node>
    <node id="n31">
      <data key="d5"/>
      <data key="d6">
        <y:ShapeNode>
          <y:Geometry height="24.0" width="604.0" x="536.6249999999999" y="810.8749999999999"/>
          <y:Fill color="#99CCFF" transparent="false"/>
          <y:BorderStyle color="#000000" type="line" width="1.0"/>
          <y:NodeLabel alignment="center" autoSizePolicy="content" fontFamily="Dialog" fontSize="12" fontStyle="plain" hasBackgroundColor="false" hasLineColor="false" height="17.96875" modelName="custom" textColor="#000000" visible="true" width="575.505859375" x="14.2470703125" y="3.015625">void output_fasta_seqs(gene_entries, in_fasta, output_path, fasta_id_separator, out_filter_field)<y:LabelModel>
              <y:SmartNodeLabelModel distance="4.0"/>
            </y:LabelModel>
            <y:ModelParameter>
              <y:SmartNodeLabelModelParameter labelRatioX="0.0" labelRatioY="0.0" nodeRatioX="0.0" nodeRatioY="0.0" offsetX="0.0" offsetY="0.0" upX="0.0" upY="-1.0"/>
            </y:ModelParameter>
          </y:NodeLabel>
          <y:Shape type="roundrectangle"/>
        </y:ShapeNode>
      </data>
    </node>
    <node id="n32">
      <data key="d5"/>
      <data key="d6">
        <y:ShapeNode>
          <y:Geometry height="544.5000000000001" width="488.0" x="-4.0" y="314.25"/>
          <y:Fill hasColor="false" transparent="false"/>
          <y:BorderStyle color="#000000" type="line" width="1.0"/>
          <y:NodeLabel alignment="center" autoSizePolicy="content" fontFamily="Dialog" fontSize="12" fontStyle="plain" hasBackgroundColor="false" hasLineColor="false" hasText="false" height="4.0" modelName="custom" textColor="#000000" visible="true" width="4.0" x="242.0" y="270.25">
            <y:LabelModel>
              <y:SmartNodeLabelModel distance="4.0"/>
            </y:LabelModel>
            <y:ModelParameter>
              <y:SmartNodeLabelModelParameter labelRatioX="0.0" labelRatioY="0.0" nodeRatioX="0.0" nodeRatioY="0.0" offsetX="0.0" offsetY="0.0" upX="0.0" upY="-1.0"/>
            </y:ModelParameter>
          </y:NodeLabel>
          <y:Shape type="rectangle"/>
        </y:ShapeNode>
      </data>
    </node>
    <node id="n33">
      <data key="d5"/>
      <data key="d6">
        <y:ShapeNode>
          <y:Geometry height="238.5" width="632.0" x="522.6249999999999" y="319.00000000000006"/>
          <y:Fill hasColor="false" transparent="false"/>
          <y:BorderStyle color="#000000" type="line" width="1.0"/>
          <y:NodeLabel alignment="center" autoSizePolicy="content" fontFamily="Dialog" fontSize="12" fontStyle="plain" hasBackgroundColor="false" hasLineColor="false" hasText="false" height="4.0" modelName="custom" textColor="#000000" visible="true" width="4.0" x="314.0" y="117.25">
            <y:LabelModel>
              <y:SmartNodeLabelModel distance="4.0"/>
            </y:LabelModel>
            <y:ModelParameter>
              <y:SmartNodeLabelModelParameter labelRatioX="0.0" labelRatioY="0.0" nodeRatioX="0.0" nodeRatioY="0.0" offsetX="0.0" offsetY="0.0" upX="0.0" upY="-1.0"/>
            </y:ModelParameter>
          </y:NodeLabel>
          <y:Shape type="rectangle"/>
        </y:ShapeNode>
      </data>
    </node>
    <node id="n34">
      <data key="d5"/>
      <data key="d6">
        <y:ShapeNode>
          <y:Geometry height="134.25" width="632.0" x="522.3749999999999" y="718.125"/>
          <y:Fill hasColor="false" transparent="false"/>
          <y:BorderStyle color="#000000" type="line" width="1.0"/>
          <y:NodeLabel alignment="center" autoSizePolicy="content" fontFamily="Dialog" fontSize="12" fontStyle="plain" hasBackgroundColor="false" hasLineColor="false" hasText="false" height="4.0" modelName="custom" textColor="#000000" visible="true" width="4.0" x="314.0" y="65.125">
            <y:LabelModel>
              <y:SmartNodeLabelModel distance="4.0"/>
            </y:LabelModel>
            <y:ModelParameter>
              <y:SmartNodeLabelModelParameter labelRatioX="0.0" labelRatioY="0.0" nodeRatioX="0.0" nodeRatioY="0.0" offsetX="0.0" offsetY="0.0" upX="0.0" upY="-1.0"/>
            </y:ModelParameter>
          </y:NodeLabel>
          <y:Shape type="rectangle"/>
        </y:ShapeNode>
      </data>
    </node>
  </graph>
  <data key="d7">
    <y:Resources/>
  </data>
</graphml>
